[gd_scene load_steps=7 format=2]

[ext_resource path="res://Level1.gd" type="Script" id=1]
[ext_resource path="res://Tileset.meshlib" type="MeshLibrary" id=2]
[ext_resource path="res://HorrorWall.tscn" type="PackedScene" id=3]
[ext_resource path="res://Player.tscn" type="PackedScene" id=4]
[ext_resource path="res://sounds/videoplayback (online-audio-converter.com).ogg" type="AudioStream" id=5]

[sub_resource type="Environment" id=1]
background_mode = 2

[node name="Level1" type="Spatial"]
script = ExtResource( 1 )

[node name="Wall" type="GridMap" parent="."]
mesh_library = ExtResource( 2 )
data = {
"cells": PoolIntArray( 0, 65524, 0, 1, 65524, 0, 2, 65524, 0, 3, 65524, 0, 4, 65524, 0, 5, 65524, 0, 6, 65524, 0, 7, 65524, 0, 8, 65524, 0, 9, 65524, 0, 10, 65524, 0, 11, 65524, 0, 12, 65524, 0, 13, 65524, 0, 14, 65524, 0, 0, 65525, 0, 3, 65525, 0, 6, 65525, 0, 8, 65525, 0, 14, 65525, 0, -65525, 65525, 1, 0, 65526, 0, 8, 65526, 0, 9, 65526, 0, 10, 65526, 0, 11, 65526, 0, 14, 65526, 0, 0, 65527, 0, 3, 65527, 0, 4, 65527, 0, 5, 65527, 0, 6, 65527, 0, 14, 65527, 0, 0, 65528, 0, 6, 65528, 0, 11, 65528, 1048576, 12, 65528, 1048576, 14, 65528, 0, 0, 65529, 0, 3, 65529, 0, 4, 65529, 0, 5, 65529, 0, 6, 65529, 0, 8, 65529, 0, 11, 65529, 1048576, 14, 65529, 0, 0, 65530, 0, 3, 65530, 0, 8, 65530, 0, 11, 65530, 0, 14, 65530, 0, 0, 65531, 0, 3, 65531, 0, 7, 65531, 0, 8, 65531, 0, 11, 65531, 0, 14, 65531, 0, 0, 65532, 0, 3, 65532, 0, 4, 65532, 0, 5, 65532, 0, 11, 65532, 0, 14, 65532, 0, 0, 65533, 0, 5, 65533, 0, 8, 65533, 0, 10, 65533, 0, 11, 65533, 0, 12, 65533, 0, 14, 65533, 0, 0, 65534, 0, 5, 65534, 0, 8, 65534, 0, 14, 65534, 0, 0, 65535, 0, 1, 65535, 0, 2, 65535, 0, 3, 65535, 0, 4, 65535, 0, 5, 65535, 0, 6, 65535, 0, 7, 65535, 0, 8, 65535, 0, 9, 65535, 0, 10, 65535, 0, 11, 65535, 0, 12, 65535, 0, 13, 65535, 0, 14, 65535, 0 )
}
__meta__ = {
"_editor_clip_": 0,
"_editor_floor_": Vector3( 0, 0, 0 )
}

[node name="Floor" type="GridMap" parent="."]
mesh_library = ExtResource( 2 )
data = {
"cells": PoolIntArray( -65536, 65524, 1, -65535, 65524, 1, -65534, 65524, 1, -65533, 65524, 1, -65532, 65524, 1, -65531, 65524, 1, -65530, 65524, 1, -65529, 65524, 1, -65528, 65524, 1, -65527, 65524, 1, -65526, 65524, 1, -65525, 65524, 1, -65524, 65524, 1, -65523, 65524, 1, -65522, 65524, 1610612737, -65536, 65525, 1, -65535, 65525, 1, -65534, 65525, 1, -65533, 65525, 1, -65532, 65525, 1, -65531, 65525, 1, -65530, 65525, 1610612737, -65529, 65525, 1, -65528, 65525, 1, -65527, 65525, 1, -65526, 65525, 1, -65525, 65525, 1, -65524, 65525, 1, -65523, 65525, 1, -65522, 65525, 1, -65536, 65526, 1, -65535, 65526, 1, -65534, 65526, 1, -65533, 65526, 1, -65532, 65526, 1, -65531, 65526, 1, -65530, 65526, 1, -65529, 65526, 1, -65528, 65526, 1, -65527, 65526, 1, -65526, 65526, 1, -65525, 65526, 1, -65524, 65526, 1, -65523, 65526, 1, -65522, 65526, 1, -65536, 65527, 1, -65535, 65527, 1, -65534, 65527, 1, -65533, 65527, 1, -65532, 65527, 1, -65531, 65527, 1, -65530, 65527, 1, -65529, 65527, 1, -65528, 65527, 1, -65527, 65527, 1, -65526, 65527, 1, -65525, 65527, 1, -65524, 65527, 1, -65523, 65527, 1, -65522, 65527, 1, -65536, 65528, 1, -65535, 65528, 1, -65534, 65528, 1, -65533, 65528, 1, -65532, 65528, 1, -65531, 65528, 1, -65530, 65528, 1, -65529, 65528, 1, -65528, 65528, 1, -65527, 65528, 1, -65526, 65528, 1, -65525, 65528, 1, -65524, 65528, 1, -65523, 65528, 536870913, -65522, 65528, 1, -65536, 65529, 1, -65535, 65529, 1, -65534, 65529, 1, -65533, 65529, 327681, -65532, 65529, 327681, -65531, 65529, 327681, -65530, 65529, 327681, -65529, 65529, 1, -65528, 65529, 327681, -65527, 65529, 1, -65526, 65529, 1, -65525, 65529, 327681, -65524, 65529, 327681, -65523, 65529, 1, -65522, 65529, 1, -65536, 65530, 1, -65535, 65530, 1, -65534, 65530, 1, -65533, 65530, 327681, -65532, 65530, 1, -65531, 65530, 1, -65530, 65530, 1, -65529, 65530, 1, -65528, 65530, 327681, -65527, 65530, 1, -65526, 65530, 1, -65525, 65530, 1, -65524, 65530, 1, -65523, 65530, 1, -65522, 65530, 1, -65536, 65531, 1, -65535, 65531, 1, -65534, 65531, 1, -65533, 65531, 1, -65532, 65531, 1, -65531, 65531, 1, -65530, 65531, 1, -65529, 65531, 327681, -65528, 65531, 327681, -65527, 65531, 1, -65526, 65531, 1, -65525, 65531, 327681, -65524, 65531, 1, -65523, 65531, 1, -65522, 65531, 1, -65536, 65532, 1, -65535, 65532, 1, -65534, 65532, 1, -65533, 65532, 327681, -65532, 65532, 327681, -65531, 65532, 327681, -65530, 65532, 1, -65529, 65532, 1, -65528, 65532, 1, -65527, 65532, 1, -65526, 65532, 1, -65525, 65532, 1, -65524, 65532, 1, -65523, 65532, 1, -65522, 65532, 1, -65536, 65533, 1, -65535, 65533, 1, -65534, 65533, 1, -65533, 65533, 1, -65532, 65533, 1, -65531, 65533, 1, -65530, 65533, 1, -65529, 65533, 1, -65528, 65533, 1, -65527, 65533, 1, -65526, 65533, 1, -65525, 65533, 1, -65524, 65533, 327681, -65523, 65533, 1, -65522, 65533, 1, -65536, 65534, 1, -65535, 65534, 1, -65534, 65534, 1, -65533, 65534, 1, -65532, 65534, 1, -65531, 65534, 1, -65530, 65534, 1, -65529, 65534, 1, -65528, 65534, 1, -65527, 65534, 1, -65526, 65534, 1, -65525, 65534, 1, -65524, 65534, 1, -65523, 65534, 1, -65522, 65534, 1, -65536, 65535, 1, -65535, 65535, 1, -65534, 65535, 1, -65533, 65535, 1, -65532, 65535, 1, -65531, 65535, 1, -65530, 65535, 1, -65529, 65535, 1, -65528, 65535, 1, -65527, 65535, 1, -65526, 65535, 1, -65525, 65535, 1, -65524, 65535, 1, -65523, 65535, 1, -65522, 65535, 1 )
}
__meta__ = {
"_editor_clip_": 0,
"_editor_floor_": Vector3( 0, -1, 0 )
}

[node name="HorrorWall" parent="." instance=ExtResource( 3 )]
data = {
"cells": PoolIntArray( 0, 65524, 1610612736, 3, 65524, 1441796, 6, 65524, 1441797, 9, 65524, 1441796, 12, 65524, 1441795, 14, 65524, 1441792, 0, 65525, 5, 3, 65525, -1072300032, 6, 65525, 1612054528, 8, 65525, 1612054528, 14, 65525, 1441792, 0, 65526, 0, 8, 65526, -1072300032, 9, 65526, -1072300032, 10, 65526, -1072300027, 11, 65526, -1072300027, 14, 65526, 1612054528, 0, 65527, 1612054533, 3, 65527, 655365, 4, 65527, 655365, 5, 65527, 655365, 6, 65527, 1611268101, 14, 65527, 1441792, 0, 65528, 1441797, 6, 65528, 655360, 11, 65528, -1072300027, 12, 65528, 1611268096, 14, 65528, 1441792, 0, 65529, 0, 3, 65529, -1073086459, 4, 65529, 655360, 5, 65529, 1611268096, 6, 65529, 655360, 8, 65529, 537526272, 11, 65529, -1072300027, 0, 65530, 0, 3, 65530, 1611268101, 8, 65530, 655360, 11, 65530, 1612054533, 14, 65530, 4, 0, 65531, 0, 3, 65531, 655365, 7, 65531, 1611268096, 8, 65531, 655360, 11, 65531, 1441797, 3, 65532, -1072300027, 4, 65532, 1441797, 5, 65532, 1441797, 11, 65532, 1441797, 0, 65533, -1073741821, 5, 65533, 1612054533, 8, 65533, 1611268101, 10, 65533, 655360, 11, 65533, 655360, 12, 65533, 655360, 14, 65533, 2, 5, 65534, 538312704, 8, 65534, 655365, 0, 65535, 0, 3, 65535, 1612054532, 9, 65535, 1441796, 12, 65535, 1612054528, 13, 65535, 1612054528, 14, 65535, 1611268101 )
}

[node name="Player" parent="." instance=ExtResource( 4 )]
transform = Transform( 1, 0, 0, 0, 1, 0, 0, 0, 1, 4.28098, 0.362708, -4.34927 )

[node name="WorldEnvironment" type="WorldEnvironment" parent="."]
environment = SubResource( 1 )

[node name="OmniLight" type="OmniLight" parent="."]
transform = Transform( 1, 0, 0, 0, 1, 0, 0, 0, 1, 9.56637, 3.08539, -3.13265 )
light_indirect_energy = 0.0
shadow_enabled = true

[node name="OmniLight2" type="OmniLight" parent="."]
transform = Transform( 1, 0, 0, 0, 1, 0, 0, 0, 1, 4.09664, 4.02263, -12.4209 )
shadow_enabled = true

[node name="OmniLight3" type="OmniLight" parent="."]
transform = Transform( 1, 0, 0, 0, 1, 0, 0, 0, 1, 4.12419, 4.02214, -20.6773 )
shadow_enabled = true

[node name="OmniLight4" type="OmniLight" parent="."]
transform = Transform( 1, 0, 0, 0, 1, 0, 0, 0, 1, 14.9866, 3.88007, -20.9658 )
light_indirect_energy = 0.0
shadow_enabled = true

[node name="OmniLight5" type="OmniLight" parent="."]
transform = Transform( 1, 0, 0, 0, 1, 0, 0, 0, 1, 15.8424, 3.80437, -11.0682 )
light_indirect_energy = 0.0
shadow_enabled = true

[node name="OmniLight6" type="OmniLight" parent="."]
transform = Transform( 1, 0, 0, 0, 1, 0, 0, 0, 1, 19.1814, 4.58489, -5.32799 )
light_indirect_energy = 0.0
shadow_enabled = true

[node name="OmniLight7" type="OmniLight" parent="."]
transform = Transform( 1, 0, 0, 0, 1, 0, 0, 0, 1, 19.2756, 3.4954, -16.7879 )
light_indirect_energy = 0.0
shadow_enabled = true

[node name="OmniLight8" type="OmniLight" parent="."]
transform = Transform( 1, 0, 0, 0, 1, 0, 0, 0, 1, 24.4711, 3.69493, -9.04759 )
light_indirect_energy = 0.0
shadow_enabled = true

[node name="OmniLight9" type="OmniLight" parent="."]
transform = Transform( 1, 0, 0, 0, 1, 0, 0, 0, 1, 27.697, 3.40797, -19.3534 )
light_indirect_energy = 0.0
shadow_enabled = true

[node name="OmniLight10" type="OmniLight" parent="."]
transform = Transform( 1, 0, 0, 0, 1, 0, 0, 0, 1, 13.8023, 3.40797, -2.40872 )
light_indirect_energy = 0.0
shadow_enabled = true

[node name="Theme" type="AudioStreamPlayer" parent="."]
stream = ExtResource( 5 )
volume_db = -20.0
