[gd_scene load_steps=4 format=2]

[ext_resource path="res://addons/zylann.hterrain/hterrain.gd" type="Script" id=1]
[ext_resource path="res://addons/zylann.hterrain/tools/icons/icon_heightmap_node.svg" type="Texture" id=2]
[ext_resource path="res://TerrainData/data.hterrain" type="Resource" id=3]

[node name="Main_Scene" type="Spatial"]

[node name="HTerrain" type="Spatial" parent="."]
script = ExtResource( 1 )
__meta__ = {
"_editor_icon": ExtResource( 2 )
}
collision_enabled = true
ambient_wind = 0.0
lod_scale = 2.0
map_scale = Vector3( 1, 1, 1 )
_terrain_data = ExtResource( 3 )
chunk_size = 16
shader_type = "Classic4"
custom_shader = null
shader_params/u_ground_uv_scale = 20
shader_params/u_depth_blending = true
shader_params/u_triplanar = false
shader_params/u_globalmap_blend_start = null
shader_params/u_globalmap_blend_distance = null
ground/albedo_bump_0 = null
ground/normal_roughness_0 = null
ground/albedo_bump_1 = null
ground/normal_roughness_1 = null
ground/albedo_bump_2 = null
ground/normal_roughness_2 = null
ground/albedo_bump_3 = null
ground/normal_roughness_3 = null
