[gd_scene load_steps=6 format=2]

[ext_resource path="res://horror_pic/g5.jpg" type="Texture" id=1]
[ext_resource path="res://font/youmurdererbb_reg.ttf" type="DynamicFontData" id=2]
[ext_resource path="res://font/DoubleFeature20.ttf" type="DynamicFontData" id=3]

[sub_resource type="DynamicFont" id=1]
size = 95
font_data = ExtResource( 2 )

[sub_resource type="DynamicFont" id=2]
size = 28
outline_color = Color( 0.0431373, 0.027451, 0.027451, 1 )
font_data = ExtResource( 3 )

[node name="MainMenu" type="Control"]
anchor_right = 1.0
anchor_bottom = 1.0
__meta__ = {
"_edit_lock_": true
}

[node name="TextureRect" type="TextureRect" parent="."]
margin_right = 1356.0
margin_bottom = 852.0
texture = ExtResource( 1 )
__meta__ = {
"_edit_lock_": true
}

[node name="Label" type="Label" parent="."]
margin_left = 233.0
margin_top = 71.0
margin_right = 797.0
margin_bottom = 189.0
custom_fonts/font = SubResource( 1 )
custom_colors/font_color = Color( 0.337255, 0.0588235, 0.0588235, 1 )
custom_colors/font_outline_modulate = Color( 0.792157, 0.34902, 0.34902, 1 )
text = "YanTra Horror Game"

[node name="Button" type="Button" parent="."]
margin_left = 466.477
margin_top = 260.207
margin_right = 565.477
margin_bottom = 300.207
custom_fonts/font = SubResource( 2 )
custom_colors/font_color_disabled = Color( 0.65098, 0.192157, 0.192157, 1 )
custom_colors/font_color = Color( 0.431373, 0.027451, 0.113725, 1 )
custom_colors/font_color_hover = Color( 0.666667, 0.32549, 0.32549, 1 )
text = "Play"
